  -3.4916232e-02
  -3.4531075e-02
  -3.4130376e-02
  -3.3715700e-02
  -3.3288545e-02
  -3.2850342e-02
  -3.2402453e-02
  -3.1946173e-02
  -3.1482729e-02
  -3.1013282e-02
  -3.0538923e-02
  -3.0060677e-02
  -2.9579501e-02
  -2.9096284e-02
  -2.8611847e-02
  -2.8126944e-02
  -2.7642262e-02
  -2.7158420e-02
  -2.6675967e-02
  -2.6195388e-02
  -2.5717099e-02
  -2.5241447e-02
  -2.4768713e-02
  -2.4299110e-02
  -2.3832782e-02
  -2.3369808e-02
  -2.2910197e-02
  -2.2453892e-02
  -2.2000766e-02
  -2.1550628e-02
  -2.1103216e-02
  -2.0658203e-02
  -2.0215191e-02
  -1.9773718e-02
  -1.9333253e-02
  -1.8893195e-02
  -1.8452880e-02
  -1.8011573e-02
  -1.7568472e-02
  -1.7122708e-02
  -1.6674486e-02
  -1.6225608e-02
  -1.5776352e-02
  -1.5326939e-02
  -1.4877575e-02
  -1.4428444e-02
  -1.3979717e-02
  -1.3531543e-02
  -1.3084054e-02
  -1.2637366e-02
  -1.2191574e-02
  -1.1746758e-02
  -1.1302979e-02
  -1.0860278e-02
  -1.0418682e-02
  -9.9781962e-03
  -9.5388107e-03
  -9.1004962e-03
  -8.6632059e-03
  -8.2268750e-03
  -7.7914207e-03
  -7.3567424e-03
  -6.9227214e-03
  -6.4892212e-03
  -6.0560874e-03
  -5.6231474e-03
  -5.1902109e-03
  -4.7570697e-03
  -4.3234975e-03
  -3.8892501e-03
  -3.4540654e-03
  -3.0176634e-03
  -2.5797461e-03
  -2.1399976e-03
  -1.6980840e-03
  -1.2536536e-03
  -8.0633657e-04
  -3.5574530e-04
   9.8525825e-05
   5.5690033e-04
   1.0198197e-03
   1.4877433e-03
   1.9611486e-03
   2.4405307e-03
   2.9212717e-03
   3.3915797e-03
   3.8563742e-03
   4.3216982e-03
   4.7936906e-03
   5.2785861e-03
   5.7827156e-03
   6.3125056e-03
   6.8744785e-03
   7.4752528e-03
   8.1215428e-03
   8.8201587e-03
   9.5780065e-03
   1.0402088e-02
   1.1299502e-02
   1.2277442e-02
   1.3343197e-02
   1.4504153e-02
   1.5767791e-02
   1.7141690e-02
   1.8633522e-02
   2.0251057e-02
   2.2002159e-02
   2.3894790e-02
   2.5937007e-02
   2.8136963e-02
   3.0502906e-02
   3.3043180e-02
   3.5766228e-02
   3.8680584e-02
   4.1794881e-02
   4.5117848e-02
   4.8658309e-02
   5.2425184e-02
   5.6427489e-02
   6.0674335e-02
   6.5174931e-02
   6.9938580e-02
   7.4974681e-02
   8.0292731e-02
   8.5902320e-02
   9.1813136e-02
   9.8034963e-02
   1.0457768e-01
   1.1147408e-01
   1.1881119e-01
   1.2654135e-01
   1.3460267e-01
   1.4293522e-01
   1.5148102e-01
   1.6018402e-01
   1.6899012e-01
   1.7784719e-01
   1.8670501e-01
   1.9551532e-01
   2.0423183e-01
   2.1281016e-01
   2.2120790e-01
   2.2938457e-01
   2.3730166e-01
   2.4492257e-01
   2.5221269e-01
   2.5913933e-01
   2.6567174e-01
   2.7178113e-01
   2.7744066e-01
   2.8262543e-01
   2.8731248e-01
   2.9148080e-01
   2.9511134e-01
   2.9818697e-01
   3.0069254e-01
   3.0261481e-01
   3.0394252e-01
   3.0466632e-01
   3.0477885e-01
   3.0427465e-01
   3.0315025e-01
   3.0140410e-01
   2.9903659e-01
   2.9605009e-01
   2.9244887e-01
   2.8823919e-01
   2.8342923e-01
   2.7802913e-01
   2.7206296e-01
   2.6559675e-01
   2.5869376e-01
   2.5141434e-01
   2.4381628e-01
   2.3595487e-01
   2.2788289e-01
   2.1965059e-01
   2.1130571e-01
   2.0289346e-01
   1.9445655e-01
   1.8603515e-01
   1.7766695e-01
   1.6938708e-01
   1.6122817e-01
   1.5322035e-01
   1.4539120e-01
   1.3776581e-01
   1.3036674e-01
   1.2321403e-01
   1.1632520e-01
   1.0971528e-01
   1.0339673e-01
   9.7379552e-02
   9.1671187e-02
   8.6276577e-02
   8.1198144e-02
   7.6435791e-02
   7.1986903e-02
   6.7846350e-02
   6.4006482e-02
   6.0457133e-02
   5.7185619e-02
   5.4176737e-02
   5.1413246e-02
   4.8885732e-02
   4.6586943e-02
   4.4503178e-02
   4.2614689e-02
   4.0895682e-02
   3.9314319e-02
   3.7832721e-02
   3.6406958e-02
   3.4987061e-02
   3.3517014e-02
   3.1943143e-02
   3.0180007e-02
   2.8093971e-02
   2.5555538e-02
   2.2440637e-02
   1.8630610e-02
   1.4012225e-02
   8.4776654e-03
   1.9245356e-03
  -5.7441402e-03
  -1.4620466e-02
  -2.4751410e-02
  -3.5998665e-02
  -4.8131076e-02
  -6.0852281e-02
  -7.3800706e-02
  -8.6549566e-02
  -9.8606867e-02
  -1.0941540e-01
  -1.1835276e-01
  -1.2473132e-01
  -1.2779823e-01
  -1.2673547e-01
  -1.2066426e-01
  -1.0915445e-01
  -9.1491701e-02
  -6.6754102e-02
  -3.4258066e-02
   6.4416968e-03
   5.5552171e-02
   1.1304204e-01
   1.7864167e-01
   2.5184314e-01
   3.3190022e-01
   4.1782837e-01
   5.0840474e-01
   6.0237603e-01
   6.9898944e-01
   7.9440545e-01
   8.8466142e-01
   9.6632397e-01
   1.0364890e+00
   1.0927815e+00
   1.1333560e+00
   1.1568961e+00
   1.1626147e+00
   1.1502539e+00
   1.1200851e+00
   1.0729091e+00
   1.0100556e+00
   9.3338401e-01
   8.4550033e-01
   7.4987682e-01
   6.4981350e-01
   5.4826066e-01
   4.4781897e-01
   3.5073939e-01
   2.5892322e-01
   1.7392208e-01
   9.6937915e-02
   2.8822994e-02
  -2.9920086e-02
  -7.9138406e-02
  -1.1886450e-01
  -1.4927528e-01
  -1.7080523e-01
  -1.8401380e-01
  -1.8958537e-01
  -1.8832926e-01
  -1.8117969e-01
  -1.6917871e-01
  -1.5333716e-01
  -1.3474279e-01
  -1.1440670e-01
  -9.3226715e-02
  -7.1987399e-02
  -5.1360042e-02
  -3.1902670e-02
  -1.4133695e-02
   1.6831379e-03
   1.5606321e-02
   2.7714222e-02
   3.8101160e-02
   4.6877407e-02
   5.4169182e-02
   6.0118655e-02
   6.4883948e-02
   6.8639131e-02
   7.1574227e-02
   7.3895208e-02
   7.5823996e-02
   7.7542175e-02
   7.9070925e-02
   8.0460104e-02
   8.1757073e-02
   8.3003627e-02
   8.4235996e-02
   8.5484847e-02
   8.6775279e-02
   8.8126829e-02
   8.9553467e-02
   9.1063599e-02
   9.2660065e-02
   9.4340143e-02
   9.6102556e-02
   9.7961520e-02
   9.9922978e-02
   1.0199220e-01
   1.0417439e-01
   1.0647466e-01
   1.0889804e-01
   1.1144949e-01
   1.1413389e-01
   1.1695603e-01
   1.1992065e-01
   1.2303237e-01
   1.2629575e-01
   1.2971529e-01
   1.3329537e-01
   1.3704033e-01
   1.4095404e-01
   1.4503702e-01
   1.4929305e-01
   1.5372646e-01
   1.5834083e-01
   1.6313908e-01
   1.6812339e-01
   1.7329528e-01
   1.7865553e-01
   1.8420423e-01
   1.8994076e-01
   1.9586381e-01
   2.0197135e-01
   2.0826066e-01
   2.1472831e-01
   2.2137018e-01
   2.2818141e-01
   2.3515648e-01
   2.4228914e-01
   2.4957245e-01
   2.5699876e-01
   2.6455971e-01
   2.7224625e-01
   2.8004862e-01
   2.8795636e-01
   2.9595830e-01
   3.0405031e-01
   3.1223152e-01
   3.2048140e-01
   3.2877911e-01
   3.3710415e-01
   3.4543628e-01
   3.5375559e-01
   3.6204245e-01
   3.7027755e-01
   3.7844185e-01
   3.8651663e-01
   3.9448347e-01
   4.0232424e-01
   4.1002112e-01
   4.1755659e-01
   4.2491341e-01
   4.3207466e-01
   4.3902371e-01
   4.4574423e-01
   4.5222020e-01
   4.5843589e-01
   4.6437587e-01
   4.7002501e-01
   4.7536848e-01
   4.8039174e-01
   4.8508058e-01
   4.8942105e-01
   4.9339953e-01
   4.9700269e-01
   5.0021748e-01
   5.0303118e-01
   5.0543136e-01
   5.0740588e-01
   5.0894290e-01
   5.1003017e-01
   5.1065106e-01
   5.1080701e-01
   5.1050458e-01
   5.0975073e-01
   5.0855292e-01
   5.0691906e-01
   5.0485752e-01
   5.0237710e-01
   4.9948709e-01
   4.9619722e-01
   4.9251770e-01
   4.8845917e-01
   4.8403274e-01
   4.7924998e-01
   4.7412292e-01
   4.6866404e-01
   4.6288627e-01
   4.5680302e-01
   4.5042815e-01
   4.4377597e-01
   4.3686125e-01
   4.2969921e-01
   4.2230556e-01
   4.1469643e-01
   4.0688843e-01
   3.9889861e-01
   3.9074450e-01
   3.8244407e-01
   3.7401576e-01
   3.6547846e-01
   3.5685151e-01
   3.4815473e-01
   3.3940838e-01
   3.3063318e-01
   3.2185032e-01
   3.1308143e-01
   3.0434861e-01
   2.9567441e-01
   2.8708185e-01
   2.7859439e-01
   2.7023050e-01
   2.6198338e-01
   2.5386043e-01
   2.4587122e-01
   2.3802477e-01
   2.3032950e-01
   2.2279326e-01
   2.1542329e-01
   2.0822630e-01
   2.0120838e-01
   1.9437504e-01
   1.8773124e-01
   1.8128132e-01
   1.7502907e-01
   1.6897768e-01
   1.6312978e-01
   1.5748739e-01
   1.5205197e-01
   1.4682439e-01
   1.4180496e-01
   1.3699337e-01
   1.3238877e-01
   1.2798971e-01
   1.2379415e-01
   1.1979948e-01
   1.1600252e-01
   1.1239950e-01
   1.0898605e-01
   1.0575725e-01
   1.0270758e-01
   9.9830945e-02
   9.7120675e-02
   9.4569510e-02
   9.2169614e-02
   8.9912568e-02
   8.7790665e-02
   8.5806750e-02
   8.3957095e-02
   8.2235725e-02
   8.0636815e-02
   7.9154685e-02
   7.7783806e-02
   7.6518797e-02
   7.5354423e-02
   7.4285600e-02
   7.3307392e-02
   7.2415008e-02
   7.1603810e-02
   7.0869305e-02
   7.0207149e-02
   6.9613146e-02
   6.9083250e-02
   6.8613561e-02
   6.8200329e-02
   6.7839950e-02
   6.7528972e-02
   6.7264087e-02
   6.7042138e-02
   6.6860116e-02
   6.6715160e-02
   6.6604556e-02
   6.6525740e-02
   6.6476295e-02
   6.6453954e-02
   6.6456596e-02
   6.6482249e-02
   6.6529092e-02
   6.6595447e-02
   6.6679789e-02
   6.6780739e-02
   6.6899481e-02
   6.7039540e-02
   6.7199124e-02
   6.7376344e-02
   6.7569395e-02
   6.7776548e-02
   6.7996160e-02
   6.8226666e-02
   6.8466582e-02
   6.8714507e-02
   6.8969119e-02
   6.9229177e-02
   6.9493522e-02
   6.9761076e-02
   7.0030840e-02
   7.0301897e-02
   7.0573413e-02
   7.0844632e-02
   7.1114881e-02
   7.1383566e-02
   7.1650175e-02
   7.1914277e-02
   7.2175522e-02
   7.2433641e-02
   7.2688445e-02
   7.2939828e-02
   7.3187763e-02
   7.3432303e-02
   7.3673586e-02
   7.3911827e-02
   7.4147323e-02
   7.4380453e-02
   7.4611676e-02
   7.4841532e-02
   7.5070643e-02
   7.5299710e-02
   7.5529517e-02
   7.5760921e-02
   7.5993642e-02
   7.6226825e-02
   7.6460149e-02
   7.6693315e-02
   7.6926048e-02
   7.7158094e-02
   7.7389222e-02
   7.7619225e-02
   7.7847916e-02
   7.8075132e-02
   7.8300732e-02
   7.8524597e-02
   7.8746631e-02
   7.8966760e-02
   7.9184934e-02
   7.9401123e-02
   7.9615321e-02
   7.9827544e-02
   8.0037831e-02
   8.0246242e-02
   8.0452862e-02
   8.0657796e-02
   8.0861172e-02
   8.1063141e-02
   8.1263877e-02
   8.1463575e-02
   8.1662453e-02
   8.1860751e-02
   8.2058734e-02
   8.2256686e-02
   8.2454915e-02
   8.2653751e-02
   8.2853548e-02
   8.3054681e-02
   8.3257547e-02
   8.3462566e-02
   8.3670182e-02
   8.3880858e-02
   8.4095084e-02
   8.4313368e-02
   8.4536242e-02
   8.4764263e-02
   8.4998007e-02
   8.5238074e-02
   8.5485085e-02
   8.5739687e-02
   8.6003049e-02
   8.6279654e-02
   8.6571704e-02
   8.6881226e-02
   8.7210763e-02
   8.7563369e-02
   8.7942612e-02
   8.8352573e-02
   8.8797846e-02
   8.9283539e-02
   8.9815272e-02
   9.0399179e-02
   9.1041907e-02
   9.1750615e-02
   9.2532979e-02
   9.3397183e-02
   9.4351927e-02
   9.5406374e-02
   9.6567973e-02
   9.7848184e-02
   9.9260554e-02
   1.0081839e-01
   1.0253473e-01
   1.0442239e-01
   1.0649391e-01
   1.0876161e-01
   1.1123754e-01
   1.1393351e-01
   1.1686108e-01
   1.2003155e-01
   1.2345599e-01
   1.2714521e-01
   1.3110978e-01
   1.3536001e-01
   1.3990597e-01
   1.4475321e-01
   1.4990114e-01
   1.5535305e-01
   1.6110929e-01
   1.6716710e-01
   1.7352062e-01
   1.8016088e-01
   1.8707580e-01
   1.9425018e-01
   2.0166574e-01
   2.0930105e-01
   2.1713161e-01
   2.2512980e-01
   2.3326487e-01
   2.4150300e-01
   2.4980723e-01
   2.5813750e-01
   2.6645065e-01
   2.7470040e-01
   2.8283754e-01
   2.9084006e-01
   2.9866589e-01
   3.0624937e-01
   3.1352925e-01
   3.2044869e-01
   3.2695526e-01
   3.3300096e-01
   3.3854216e-01
   3.4353967e-01
   3.4795871e-01
   3.5176890e-01
   3.5494428e-01
   3.5746329e-01
   3.5930878e-01
   3.6046803e-01
   3.6093271e-01
   3.6069890e-01
   3.5976711e-01
   3.5814225e-01
   3.5583363e-01
   3.5285498e-01
   3.4922445e-01
   3.4496458e-01
   3.4010234e-01
   3.3465136e-01
   3.2861169e-01
   3.2204759e-01
   3.1502440e-01
   3.0760488e-01
   2.9984913e-01
   2.9181464e-01
   2.8355628e-01
   2.7512630e-01
   2.6657431e-01
   2.5794730e-01
   2.4928965e-01
   2.4064311e-01
   2.3204680e-01
   2.2353721e-01
   2.1514822e-01
   2.0691109e-01
   1.9885444e-01
   1.9100426e-01
   1.8338395e-01
   1.7601426e-01
   1.6891331e-01
   1.6209662e-01
   1.5557706e-01
   1.4936490e-01
   1.4346778e-01
   1.3789069e-01
   1.3263604e-01
   1.2770358e-01
   1.2309046e-01
   1.1879118e-01
   1.1479765e-01
   1.1109854e-01
   1.0768049e-01
   1.0453519e-01
   1.0165122e-01
   9.9012990e-02
   9.6600772e-02
   9.4390682e-02
   9.2354687e-02
   9.0460599e-02
   8.8672081e-02
   8.6948644e-02
   8.5247994e-02
   8.3518465e-02
   8.1657781e-02
   7.9554469e-02
   7.7093991e-02
   7.4158752e-02
   7.0628096e-02
   6.6378305e-02
   6.1282601e-02
   5.5211148e-02
   4.8031046e-02
   3.9613593e-02
   2.9937291e-02
   1.9073485e-02
   7.1731725e-03
  -5.5253504e-03
  -1.8696492e-02
  -3.1927363e-02
  -4.4717781e-02
  -5.6480263e-02
  -6.6540032e-02
  -7.4135016e-02
  -7.8415843e-02
  -7.8535892e-02
  -7.3959108e-02
  -6.3661129e-02
  -4.6706719e-02
  -2.2354677e-02
   9.9421621e-03
   5.0536929e-02
   9.9588719e-02
   1.5706259e-01
   2.2272957e-01
   2.9616666e-01
   3.7675679e-01
   4.6375023e-01
   5.5667050e-01
   6.5243854e-01
   7.4748552e-01
   8.3855412e-01
   9.2269852e-01
   9.9728445e-01
   1.0599891e+00
   1.1088013e+00
   1.1420213e+00
   1.1582609e+00
   1.1564434e+00
   1.1358036e+00
   1.0964078e+00
   1.0404631e+00
   9.7059332e-01
   8.8938375e-01
   7.9938095e-01
   7.0309297e-01
   6.0298933e-01
   5.0150099e-01
   4.0102036e-01
   3.0390132e-01
   2.1243067e-01
   1.2805797e-01
   5.1520462e-02
  -1.6586364e-02
  -7.5843841e-02
  -1.2601010e-01
  -1.6702007e-01
  -1.9898548e-01
  -2.2219486e-01
  -2.3711355e-01
  -2.4438369e-01
  -2.4482422e-01
  -2.3942419e-01
  -2.2894414e-01
  -2.1435334e-01
  -1.9675974e-01
  -1.7715828e-01
  -1.5643092e-01
  -1.3534659e-01
  -1.1456126e-01
  -9.4617866e-02
  -7.5946356e-02
  -5.8863678e-02
  -4.3573777e-02
  -3.0167599e-02
  -1.8623088e-02
  -8.8662712e-03
  -7.7584336e-04
   5.8767545e-03
   1.1304551e-02
   1.5703360e-02
   1.9251776e-02
   2.2111180e-02
   2.4425735e-02
   2.6322389e-02
   2.7910872e-02
   2.9283700e-02
   3.0516170e-02
   3.1666365e-02
   3.2775149e-02
   3.3866941e-02
   3.4973827e-02
   3.6115637e-02
   3.7302309e-02
   3.8543172e-02
   3.9846947e-02
   4.1221748e-02
   4.2675081e-02
   4.4213844e-02
   4.5844325e-02
   4.7572207e-02
   4.9402563e-02
   5.1339859e-02
   5.3387953e-02
   5.5550095e-02
   5.7828258e-02
   6.0223774e-02
   6.2743248e-02
   6.5393385e-02
   6.8180453e-02
   7.1110282e-02
   7.4188265e-02
   7.7419358e-02
   8.0808081e-02
   8.4358515e-02
   8.8074304e-02
   9.1958657e-02
   9.6014343e-02
   1.0024370e-01
   1.0464861e-01
   1.0923055e-01
   1.1399053e-01
   1.1892913e-01
   1.2404652e-01
   1.2934238e-01
   1.3481601e-01
   1.4046622e-01
   1.4629143e-01
   1.5228959e-01
   1.5845823e-01
   1.6479444e-01
   1.7129486e-01
   1.7795570e-01
   1.8477275e-01
   1.9174135e-01
   1.9885638e-01
   2.0611469e-01
   2.1351704e-01
   2.2105101e-01
   2.2870281e-01
   2.3645848e-01
   2.4430400e-01
   2.5222519e-01
   2.6020777e-01
   2.6823735e-01
   2.7629941e-01
   2.8437933e-01
   2.9246235e-01
   3.0053361e-01
   3.0857814e-01
   3.1658083e-01
   3.2452648e-01
   3.3239975e-01
   3.4018520e-01
   3.4786726e-01
   3.5543026e-01
   3.6285840e-01
   3.7013577e-01
   3.7724633e-01
   3.8417396e-01
   3.9090237e-01
   3.9741520e-01
   4.0369594e-01
   4.0972799e-01
   4.1549462e-01
   4.2097899e-01
   4.2616412e-01
   4.3103296e-01
   4.3556829e-01
   4.3975281e-01
   4.4356910e-01
   4.4700049e-01
   4.5004291e-01
   4.5269120e-01
   4.5493862e-01
   4.5677943e-01
   4.5820879e-01
   4.5922280e-01
   4.5981850e-01
   4.5999389e-01
   4.5974788e-01
   4.5908032e-01
   4.5799201e-01
   4.5648469e-01
   4.5456102e-01
   4.5222461e-01
   4.4948001e-01
   4.4633269e-01
   4.4278908e-01
   4.3885654e-01
   4.3454335e-01
   4.2985877e-01
   4.2481295e-01
   4.1941700e-01
   4.1368298e-01
   4.0762386e-01
   4.0125356e-01
   3.9458695e-01
   3.8763982e-01
   3.8042890e-01
   3.7297188e-01
   3.6528735e-01
   3.5739486e-01
   3.4931490e-01
   3.4106889e-01
   3.3267919e-01
   3.2416911e-01
   3.1556286e-01
   3.0686892e-01
   2.9809332e-01
   2.8925577e-01
   2.8037524e-01
   2.7147001e-01
   2.6255764e-01
   2.5365496e-01
   2.4477813e-01
   2.3594254e-01
   2.2716292e-01
   2.1845327e-01
   2.0982685e-01
   2.0129624e-01
   1.9287331e-01
   1.8456919e-01
   1.7639432e-01
   1.6835842e-01
   1.6047050e-01
   1.5273885e-01
   1.4517105e-01
   1.3777397e-01
   1.3055378e-01
   1.2351591e-01
   1.1666511e-01
   1.1000538e-01
   1.0354003e-01
   9.7271669e-02
   9.1202166e-02
   8.5332694e-02
   7.9663711e-02
   7.4194959e-02
   6.8925472e-02
   6.3853568e-02
   5.8979516e-02
   5.4314451e-02
   4.9854872e-02
   4.5594825e-02
   4.1528437e-02
   3.7649921e-02
   3.3953573e-02
   3.0433773e-02
   2.7084983e-02
   2.3901752e-02
   2.0878710e-02
   1.8010572e-02
   1.5292136e-02
   1.2718286e-02
   1.0283986e-02
   7.9842871e-03
   5.8143228e-03
   3.7693103e-03
   1.8445510e-03
   3.5429667e-05
  -1.6625849e-03
  -3.2539402e-03
  -4.7430000e-03
  -6.1340443e-03
  -7.4312692e-03
  -8.6387872e-03
  -9.7606270e-03
  -1.0800733e-02
  -1.1762967e-02
  -1.2651107e-02
  -1.3468844e-02
  -1.4219791e-02
  -1.4907471e-02
  -1.5535329e-02
  -1.6106721e-02
  -1.6624924e-02
  -1.7093128e-02
  -1.7514439e-02
  -1.7891882e-02
  -1.8228396e-02
  -1.8526837e-02
  -1.8789977e-02
  -1.9020505e-02
  -1.9221024e-02
  -1.9394057e-02
  -1.9542038e-02
  -1.9667323e-02
  -1.9772180e-02
  -1.9858796e-02
  -1.9929271e-02
  -1.9985625e-02
  -2.0029791e-02
  -2.0061592e-02
  -2.0076434e-02
  -2.0075226e-02
  -2.0059253e-02
  -2.0029751e-02
  -1.9987913e-02
  -1.9934886e-02
  -1.9871771e-02
  -1.9799621e-02
  -1.9719446e-02
  -1.9632210e-02
  -1.9538829e-02
  -1.9440175e-02
  -1.9337074e-02
  -1.9230305e-02
  -1.9120604e-02
  -1.9008657e-02
  -1.8895108e-02
  -1.8780553e-02
  -1.8665544e-02
  -1.8550584e-02
  -1.8436133e-02
  -1.8322605e-02
  -1.8210368e-02
  -1.8099742e-02
  -1.7991004e-02
  -1.7884384e-02
  -1.7780067e-02
  -1.7678191e-02
  -1.7578848e-02
  -1.7482086e-02
  -1.7387905e-02
  -1.7296261e-02
  -1.7207063e-02
  -1.7120175e-02
  -1.7035415e-02
  -1.6952554e-02
  -1.6871319e-02
  -1.6791390e-02
  -1.6712402e-02
  -1.6633944e-02
  -1.6555558e-02
  -1.6476741e-02
  -1.6396945e-02
  -1.6315587e-02
  -1.6233156e-02
  -1.6150385e-02
  -1.6067525e-02
  -1.5984806e-02
  -1.5902434e-02
  -1.5820593e-02
  -1.5739446e-02
  -1.5659132e-02
  -1.5579769e-02
  -1.5501452e-02
  -1.5424255e-02
  -1.5348228e-02
  -1.5273400e-02
  -1.5199776e-02
  -1.5127341e-02
  -1.5056057e-02
  -1.4985862e-02
  -1.4916674e-02
  -1.4848388e-02
  -1.4780876e-02
  -1.4713989e-02
  -1.4647555e-02
  -1.4581378e-02
  -1.4515244e-02
  -1.4448913e-02
  -1.4382124e-02
  -1.4314594e-02
  -1.4246016e-02
  -1.4176064e-02
  -1.4104387e-02
  -1.4030612e-02
  -1.3954346e-02
  -1.3875170e-02
  -1.3792646e-02
  -1.3706312e-02
  -1.3615684e-02
  -1.3520257e-02
  -1.3419501e-02
  -1.3312867e-02
  -1.3199781e-02
  -1.3080722e-02
  -1.2960621e-02
  -1.2836956e-02
  -1.2705687e-02
  -1.2562541e-02
  -1.2403011e-02
  -1.2222355e-02
  -1.2015599e-02
  -1.1777534e-02
  -1.1502717e-02
  -1.1185473e-02
  -1.0819892e-02
  -1.0399828e-02
  -9.9189057e-03
  -9.3705121e-03
  -8.7478023e-03
  -8.0436970e-03
  -7.2508835e-03
  -6.3618147e-03
  -5.3687101e-03
  -4.2635554e-03
  -3.0381022e-03
  -1.6838685e-03
  -1.9213849e-04
   1.4460376e-03
   3.2398432e-03
   5.1986956e-03
   7.3322461e-03
   9.6503794e-03
   1.2163214e-02
   1.4881104e-02
   1.7814633e-02
   2.0974624e-02
   2.4372129e-02
   2.8018437e-02
   3.1925070e-02
   3.6103782e-02
   4.0566563e-02
   4.5325636e-02
   5.0393458e-02
   5.5782720e-02
   6.1495796e-02
   6.7513634e-02
   7.3823205e-02
   8.0409874e-02
   8.7257180e-02
   9.4346839e-02
   1.0165874e-01
   1.0917094e-01
   1.1685969e-01
   1.2469940e-01
   1.3266266e-01
   1.4072023e-01
   1.4884105e-01
   1.5699223e-01
   1.6513907e-01
   1.7324502e-01
   1.8127173e-01
   1.8917900e-01
   1.9692483e-01
   2.0446538e-01
   2.1175498e-01
   2.1874615e-01
   2.2538958e-01
   2.3163413e-01
   2.3742683e-01
   2.4271290e-01
   2.4745412e-01
   2.5163354e-01
   2.5522393e-01
   2.5820184e-01
   2.6054771e-01
   2.6224589e-01
   2.6328462e-01
   2.6365600e-01
   2.6335606e-01
   2.6238469e-01
   2.6074568e-01
   2.5844671e-01
   2.5549936e-01
   2.5191908e-01
   2.4772523e-01
   2.4294104e-01
   2.3759365e-01
   2.3171407e-01
   2.2533723e-01
   2.1850190e-01
   2.1125080e-01
   2.0363049e-01
   1.9569146e-01
   1.8748805e-01
   1.7907852e-01
   1.7052500e-01
   1.6186218e-01
   1.5311544e-01
   1.4433114e-01
   1.3555276e-01
   1.2682097e-01
   1.1817358e-01
   1.0964555e-01
   1.0126901e-01
   9.3073230e-02
   8.5084647e-02
   7.7326846e-02
   6.9820569e-02
   6.2583714e-02
   5.5631334e-02
   4.8975637e-02
   4.2625985e-02
   3.6588897e-02
   3.0868047e-02
   2.5464261e-02
   2.0375526e-02
   1.5596978e-02
   1.1120913e-02
   6.8933556e-03
   2.8873543e-03
  -8.7141004e-04
  -4.3653124e-03
  -7.5847839e-03
  -1.0528312e-02
  -1.3202440e-02
  -1.5621768e-02
  -1.7808952e-02
  -1.9794704e-02
  -2.1617792e-02
  -2.3325042e-02
  -2.4971333e-02
  -2.6619604e-02
  -2.8340847e-02
  -3.0214113e-02
  -3.2326506e-02
  -3.4773188e-02
  -3.7657379e-02
  -4.1090352e-02
  -4.5191437e-02
  -5.0088023e-02
  -5.5915551e-02
  -6.2817521e-02
  -7.0944976e-02
  -8.0358194e-02
  -9.0968611e-02
  -1.0263037e-01
  -1.1512786e-01
  -1.2817566e-01
  -1.4141862e-01
  -1.5443178e-01
  -1.6672043e-01
  -1.7772009e-01
  -1.8679649e-01
  -1.9324560e-01
  -1.9629360e-01
  -1.9509693e-01
  -1.8883562e-01
  -1.7726435e-01
  -1.5942410e-01
  -1.3438536e-01
  -1.0146789e-01
  -6.0240722e-02
  -1.0522139e-02
   4.7620304e-02
   1.1386979e-01
   1.8766022e-01
   2.6817627e-01
   3.5435330e-01
   4.4487745e-01
   5.3818558e-01
   6.3286361e-01
   7.2683393e-01
   8.1608222e-01
   8.9704881e-01
   9.6673046e-01
   1.0226804e+00
   1.0630084e+00
   1.0863804e+00
   1.0920193e+00
   1.0797039e+00
   1.0497699e+00
   1.0031093e+00
   9.4117039e-01
   8.6595818e-01
   7.8003401e-01
   6.8649150e-01
   5.8791853e-01
   4.8670700e-01
   3.8526483e-01
   2.8572959e-01
   1.8996843e-01
   9.9578150e-02
   1.5885136e-02
  -6.0054597e-02
  -1.2745543e-01
  -1.8580211e-01
  -2.3484979e-01
  -2.7462400e-01
  -3.0542065e-01
  -3.2780605e-01
  -3.4243685e-01
  -3.4939233e-01
  -3.4963330e-01
  -3.4421270e-01
  -3.3412136e-01
  -3.2028798e-01
  -3.0357914e-01
  -2.8479930e-01
  -2.6469080e-01
  -2.4393385e-01
  -2.2314655e-01
  -2.0288487e-01
  -1.8364265e-01
  -1.6585163e-01
  -1.4988141e-01
  -1.3597601e-01
  -1.2402585e-01
  -1.1383439e-01
  -1.0521436e-01
  -9.7987381e-02
  -9.1984000e-02
  -8.7043677e-02
  -8.3014786e-02
  -7.9754617e-02
  -7.7129377e-02
  -7.5014187e-02
  -7.3293082e-02
  -7.1859016e-02
  -7.0613854e-02
  -6.9468380e-02
  -6.8351664e-02
  -6.7244555e-02
  -6.6134040e-02
  -6.5007134e-02
  -6.3851618e-02
  -6.2656032e-02
  -6.1409676e-02
  -6.0102614e-02
  -5.8725668e-02
  -5.7270423e-02
  -5.5729223e-02
  -5.4095176e-02
  -5.2362148e-02
  -5.0524768e-02
  -4.8578425e-02
  -4.6519270e-02
  -4.4344213e-02
  -4.2050929e-02
  -3.9637848e-02
  -3.7104587e-02
  -3.4450707e-02
  -3.1669449e-02
  -2.8753763e-02
  -2.5697117e-02
  -2.2493495e-02
  -1.9137394e-02
  -1.5623829e-02
  -1.1948330e-02
  -8.1069440e-03
  -4.0962325e-03
   8.6726721e-05
   4.4443402e-03
   8.9784985e-03
   1.3690577e-02
   1.8581433e-02
   2.3651412e-02
   2.8900340e-02
   3.4327529e-02
   3.9931775e-02
   4.5711358e-02
   5.1664042e-02
   5.7787076e-02
   6.4077191e-02
   7.0530606e-02
   7.7143020e-02
   8.3909619e-02
   9.0825073e-02
   9.7883535e-02
   1.0507864e-01
   1.1240352e-01
   1.1985077e-01
   1.2741248e-01
   1.3508023e-01
   1.4284508e-01
   1.5069757e-01
   1.5862916e-01
   1.6664124e-01
   1.7471933e-01
   1.8284484e-01
   1.9099946e-01
   1.9916512e-01
   2.0732399e-01
   2.1545848e-01
   2.2355126e-01
   2.3158524e-01
   2.3954357e-01
   2.4740965e-01
   2.5516713e-01
   2.6279990e-01
   2.7029209e-01
   2.7762810e-01
   2.8479254e-01
   2.9177030e-01
   2.9854649e-01
   3.0510648e-01
   3.1143588e-01
   3.1752055e-01
   3.2334659e-01
   3.2890035e-01
   3.3416843e-01
   3.3913766e-01
   3.4379513e-01
   3.4812817e-01
   3.5212436e-01
   3.5577153e-01
   3.5905773e-01
   3.6197130e-01
   3.6450077e-01
   3.6663497e-01
   3.6836295e-01
   3.6967399e-01
   3.7055879e-01
   3.7101668e-01
   3.7105010e-01
   3.7066207e-01
   3.6985615e-01
   3.6863652e-01
   3.6700791e-01
   3.6497562e-01
   3.6254555e-01
   3.5972414e-01
   3.5651844e-01
   3.5293606e-01
   3.4898517e-01
   3.4467454e-01
   3.4001351e-01
   3.3501197e-01
   3.2968042e-01
   3.2402991e-01
   3.1807208e-01
   3.1181914e-01
   3.0528387e-01
   2.9847963e-01
   2.9142035e-01
   2.8412054e-01
   2.7659529e-01
   2.6886025e-01
   2.6093166e-01
   2.5282633e-01
   2.4456163e-01
   2.3615554e-01
   2.2762657e-01
   2.1899384e-01
   2.1027703e-01
   2.0149641e-01
   1.9267280e-01
   1.8382761e-01
   1.7498282e-01
   1.6616100e-01
   1.5737155e-01
   1.4861587e-01
   1.3990826e-01
   1.3126237e-01
   1.2269124e-01
   1.1420725e-01
   1.0582214e-01
   9.7547000e-02
   8.9392268e-02
   8.1367744e-02
   7.3482583e-02
   6.5745291e-02
   5.8163729e-02
   5.0745112e-02
   4.3496011e-02
   3.6422347e-02
   2.9529401e-02
   2.2821802e-02
   1.6303539e-02
   9.9779509e-03
   3.8477327e-03
  -2.0850667e-03
  -7.8190442e-03
  -1.3353443e-02
  -1.8688150e-02
  -2.3823702e-02
  -2.8761277e-02
  -3.3502702e-02
  -3.8050448e-02
  -4.2407633e-02
  -4.6578021e-02
  -5.0566020e-02
  -5.4375680e-02
  -5.8002560e-02
  -6.1449810e-02
  -6.4723084e-02
  -6.7827950e-02
  -7.0769893e-02
  -7.3554309e-02
  -7.6186510e-02
  -7.8671719e-02
  -8.1015077e-02
  -8.3221635e-02
  -8.5296362e-02
  -8.7244138e-02
  -8.9069758e-02
  -9.0777930e-02
  -9.2373279e-02
  -9.3860340e-02
  -9.5243564e-02
  -9.6527317e-02
  -9.7715877e-02
  -9.8813436e-02
  -9.9824103e-02
  -1.0075190e-01
  -1.0160075e-01
  -1.0237452e-01
  -1.0307696e-01
  -1.0371175e-01
  -1.0428249e-01
  -1.0479267e-01
  -1.0524571e-01
  -1.0564495e-01
  -1.0599364e-01
  -1.0629493e-01
  -1.0655190e-01
  -1.0676753e-01
  -1.0694474e-01
  -1.0708634e-01
  -1.0719505e-01
  -1.0727352e-01
  -1.0732432e-01
  -1.0734990e-01
  -1.0734997e-01
  -1.0731835e-01
  -1.0725666e-01
  -1.0716708e-01
  -1.0705169e-01
  -1.0691252e-01
  -1.0675153e-01
  -1.0657058e-01
  -1.0637150e-01
  -1.0615600e-01
  -1.0592576e-01
  -1.0568235e-01
  -1.0542730e-01
  -1.0516205e-01
  -1.0488796e-01
  -1.0460635e-01
  -1.0431842e-01
  -1.0402534e-01
  -1.0372818e-01
  -1.0342796e-01
  -1.0312560e-01
  -1.0282197e-01
  -1.0251786e-01
  -1.0221398e-01
  -1.0191099e-01
  -1.0160945e-01
  -1.0130986e-01
  -1.0101265e-01
  -1.0071818e-01
  -1.0042672e-01
  -1.0013848e-01
  -9.9853609e-02
  -9.9572160e-02
  -9.9294127e-02
  -9.9019429e-02
  -9.8747913e-02
  -9.8479352e-02
  -9.8213447e-02
  -9.7949827e-02
  -9.7688047e-02
  -9.7427591e-02
  -9.7167870e-02
  -9.6908221e-02
  -9.6647911e-02
  -9.6386132e-02
  -9.6122006e-02
  -9.5854578e-02
  -9.5582442e-02
  -9.5302378e-02
  -9.5014923e-02
  -9.4721301e-02
  -9.4422675e-02
  -9.4120140e-02
  -9.3814732e-02
  -9.3507420e-02
  -9.3199111e-02
  -9.2890648e-02
  -9.2582810e-02
  -9.2276312e-02
  -9.1971805e-02
  -9.1669879e-02
  -9.1371057e-02
  -9.1075800e-02
  -9.0784505e-02
  -9.0497505e-02
  -9.0215069e-02
  -8.9937404e-02
  -8.9664651e-02
  -8.9396889e-02
  -8.9134133e-02
  -8.8876334e-02
  -8.8623378e-02
  -8.8375090e-02
  -8.8131230e-02
  -8.7891494e-02
  -8.7655515e-02
  -8.7422860e-02
  -8.7193036e-02
  -8.6965484e-02
  -8.6739582e-02
  -8.6514644e-02
  -8.6289919e-02
  -8.6064596e-02
  -8.5837796e-02
  -8.5608580e-02
  -8.5375942e-02
  -8.5138814e-02
  -8.4896066e-02
  -8.4646500e-02
  -8.4388859e-02
  -8.4121818e-02
  -8.3843993e-02
  -8.3553931e-02
  -8.3250120e-02
  -8.2930981e-02
  -8.2594873e-02
  -8.2240092e-02
  -8.1864868e-02
  -8.1467368e-02
  -8.1045697e-02
  -8.0597895e-02
  -8.0121938e-02
  -7.9615740e-02
  -7.9077148e-02
  -7.8503948e-02
  -7.7893862e-02
  -7.7244548e-02
  -7.6553601e-02
  -7.5818998e-02
  -7.5034830e-02
  -7.4189473e-02
  -7.3271294e-02
  -7.2268843e-02
  -7.1170855e-02
  -6.9966248e-02
  -6.8644126e-02
  -6.7193776e-02
  -6.5604670e-02
  -6.3866463e-02
  -6.1968996e-02
  -5.9902294e-02
  -5.7656564e-02
  -5.5222201e-02
  -5.2589781e-02
  -4.9750066e-02
  -4.6694002e-02
  -4.3412720e-02
  -3.9897533e-02
  -3.6139940e-02
  -3.2131625e-02
  -2.7864455e-02
  -2.3330480e-02
  -1.8521938e-02
  -1.3431248e-02
  -8.0510141e-03
  -2.3740259e-03
   3.6075384e-03
   9.8989163e-03
   1.6485910e-02
   2.3350501e-02
   3.0473373e-02
   3.7833902e-02
   4.5410166e-02
   5.3178939e-02
   6.1115694e-02
   6.9194601e-02
   7.7388527e-02
   8.5669040e-02
   9.4006401e-02
   1.0236957e-01
   1.1072622e-01
   1.1904269e-01
   1.2728404e-01
   1.3541403e-01
   1.4339511e-01
   1.5118842e-01
   1.5875382e-01
   1.6604984e-01
   1.7303374e-01
   1.7966144e-01
   1.8588759e-01
   1.9166552e-01
   1.9694727e-01
   2.0168357e-01
   2.0582441e-01
   2.0935518e-01
   2.1226980e-01
   2.1455223e-01
   2.1619006e-01
   2.1717453e-01
   2.1750054e-01
   2.1716660e-01
   2.1617490e-01
   2.1453124e-01
   2.1224509e-01
   2.0932955e-01
   2.0580136e-01
   2.0168092e-01
   1.9699226e-01
   1.9176304e-01
   1.8602460e-01
   1.7981190e-01
   1.7316354e-01
   1.6612176e-01
   1.5873248e-01
   1.5104522e-01
   1.4311315e-01
   1.3498925e-01
   1.2669809e-01
   1.1828229e-01
   1.0978833e-01
   1.0126008e-01
   9.2738764e-02
   8.4262968e-02
   7.5868638e-02
   6.7589085e-02
   5.9454979e-02
   5.1494354e-02
   4.3732604e-02
   3.6192487e-02
   2.8894121e-02
   2.1854987e-02
   1.5089928e-02
   8.6111470e-03
   2.4282110e-03
  -3.4519523e-03
  -9.0250528e-03
  -1.4289439e-02
  -1.9265415e-02
  -2.4004191e-02
  -2.8483645e-02
  -3.2681896e-02
  -3.6583151e-02
  -4.0177709e-02
  -4.3461961e-02
  -4.6438389e-02
  -4.9115565e-02
  -5.1508154e-02
  -5.3636910e-02
  -5.5528680e-02
  -5.7216400e-02
  -5.8739101e-02
  -6.0141900e-02
  -6.1476010e-02
  -6.2798732e-02
  -6.4173458e-02
  -6.5669674e-02
  -6.7362955e-02
  -6.9334967e-02
  -7.1673468e-02
  -7.4472306e-02
  -7.7831423e-02
  -8.1856848e-02
  -8.6659271e-02
  -9.2318016e-02
  -9.8991466e-02
  -1.0681309e-01
  -1.1583783e-01
  -1.2604211e-01
  -1.3732382e-01
  -1.4950236e-01
  -1.6231857e-01
  -1.7543479e-01
  -1.8843483e-01
  -2.0082400e-01
  -2.1202905e-01
  -2.2139823e-01
  -2.2832473e-01
  -2.3221280e-01
  -2.3212281e-01
  -2.2720263e-01
  -2.1670499e-01
  -1.9998748e-01
  -1.7651255e-01
  -1.4584753e-01
  -1.0766459e-01
  -6.1740772e-02
  -7.9579820e-03
   5.3697017e-02
   1.2313260e-01
   2.0020924e-01
   2.8481915e-01
   3.7499916e-01
   4.6840696e-01
   5.6273001e-01
   6.5568557e-01
   7.4502068e-01
   8.2851218e-01
   9.0396668e-01
   9.6922060e-01
   1.0221401e+00
   1.0606213e+00
   1.0825898e+00
   1.0860304e+00
   1.0707169e+00
   1.0375226e+00
   9.8741444e-01
   9.2191704e-01
   8.4311209e-01
   7.5363862e-01
   6.5669290e-01
   5.5601604e-01
   4.5443155e-01
   3.5405119e-01
   2.5711990e-01
   1.6552073e-01
   8.0774834e-02
   4.0414835e-03
  -6.3881947e-02
  -1.2255906e-01
  -1.7168849e-01
  -2.1131951e-01
  -2.4180635e-01
  -2.6359812e-01
  -2.7723883e-01
  -2.8336736e-01
  -2.8271750e-01
  -2.7611790e-01
  -2.6449212e-01
  -2.4885861e-01
  -2.3033070e-01
  -2.1009133e-01
  -1.8901543e-01
  -1.6781272e-01
  -1.4711565e-01
  -1.2744520e-01
  -1.0921089e-01
  -9.2710731e-02
  -7.8131303e-02
  -6.5547694e-02
  -5.4923528e-02
  -4.6110956e-02
  -3.8850658e-02
  -3.2844377e-02
  -2.7969315e-02
  -2.4039484e-02
  -2.0878092e-02
  -1.8326011e-02
  -1.6241783e-02
  -1.4501613e-02
  -1.2999374e-02
  -1.1646607e-02
  -1.0372518e-02
  -9.1239804e-03
  -7.8655342e-03
  -6.5793858e-03
  -5.2654086e-03
  -3.9256248e-03
  -2.5244592e-03
  -1.0530812e-03
   4.9452121e-04
   2.1242482e-03
   3.8418879e-03
   5.6531164e-03
   7.5634980e-03
   9.5784849e-03
   1.1703417e-02
   1.3943524e-02
   1.6303920e-02
   1.8789611e-02
   2.1405489e-02
   2.4156335e-02
   2.7046816e-02
   3.0081490e-02
   3.3264800e-02
   3.6601080e-02
   4.0092001e-02
   4.3733698e-02
   4.7532430e-02
   5.1494735e-02
   5.5626431e-02
   5.9932609e-02
   6.4417638e-02
   6.9085166e-02
   7.3938116e-02
   7.8978686e-02
   8.4208354e-02
   8.9627873e-02
   9.5237274e-02
   1.0103586e-01
   1.0702222e-01
   1.1319422e-01
   1.1954898e-01
   1.2608293e-01
   1.3279176e-01
   1.3967042e-01
   1.4671318e-01
   1.5391354e-01
   1.6126432e-01
   1.6875757e-01
   1.7638466e-01
   1.8413621e-01
   1.9200213e-01
   1.9997160e-01
   2.0803308e-01
   2.1617430e-01
   2.2438228e-01
   2.3264331e-01
   2.4094295e-01
   2.4926604e-01
   2.5759672e-01
   2.6591836e-01
   2.7421365e-01
   2.8246453e-01
   2.9065224e-01
   2.9876149e-01
   3.0679076e-01
   3.1471836e-01
   3.2252059e-01
   3.3017463e-01
   3.3765854e-01
   3.4495123e-01
   3.5203248e-01
   3.5888296e-01
   3.6548420e-01
   3.7181859e-01
   3.7786941e-01
   3.8362080e-01
   3.8905777e-01
   3.9416619e-01
   3.9893284e-01
   4.0334531e-01
   4.0739212e-01
   4.1106262e-01
   4.1434705e-01
   4.1723650e-01
   4.1972297e-01
   4.2179928e-01
   4.2345917e-01
   4.2469721e-01
   4.2550886e-01
   4.2589044e-01
   4.2583917e-01
   4.2535310e-01
   4.2443117e-01
   4.2307319e-01
   4.2127959e-01
   4.1901655e-01
   4.1627491e-01
   4.1307626e-01
   4.0944194e-01
   4.0539297e-01
   4.0095009e-01
   3.9613375e-01
   3.9096409e-01
   3.8546097e-01
   3.7964396e-01
   3.7353233e-01
   3.6714505e-01
   3.6050081e-01
   3.5361801e-01
   3.4651473e-01
   3.3920880e-01
   3.3171772e-01
   3.2405871e-01
   3.1624870e-01
   3.0830432e-01
   3.0024191e-01
   2.9207753e-01
   2.8382693e-01
   2.7550556e-01
   2.6712861e-01
   2.5871094e-01
   2.5026713e-01
   2.4181149e-01
   2.3335800e-01
   2.2492037e-01
   2.1651200e-01
   2.0814603e-01
   1.9983527e-01
   1.9159225e-01
   1.8342922e-01
   1.7535812e-01
   1.6739060e-01
   1.5953802e-01
   1.5181145e-01
   1.4422166e-01
   1.3677914e-01
   1.2949406e-01
   1.2237634e-01
   1.1543556e-01
   1.0868104e-01
   1.0212179e-01
   9.5766538e-02
   8.9623709e-02
   8.3701442e-02
   7.8007173e-02
   7.2538093e-02
   6.7288316e-02
   6.2253561e-02
   5.7429536e-02
   5.2811945e-02
   4.8396480e-02
   4.4178826e-02
   4.0154662e-02
   3.6319656e-02
   3.2669469e-02
   2.9199755e-02
   2.5906158e-02
   2.2784314e-02
   1.9829853e-02
   1.7038395e-02
   1.4405552e-02
   1.1926928e-02
   9.5981197e-03
   7.4147145e-03
   5.3722924e-03
   3.4664249e-03
   1.6926758e-03
   4.6600341e-05
  -1.4762541e-03
  -2.8803485e-03
  -4.1701517e-03
  -5.3501408e-03
  -6.4248010e-03
  -7.3986257e-03
  -8.2761164e-03
  -9.0617827e-03
  -9.7601422e-03
  -1.0375721e-02
  -1.0913053e-02
  -1.1376680e-02
  -1.1771152e-02
  -1.2101028e-02
  -1.2370875e-02
  -1.2585267e-02
  -1.2748786e-02
  -1.2866024e-02
  -1.2941579e-02
  -1.2980059e-02
  -1.2986079e-02
  -1.2964039e-02
  -1.2913675e-02
  -1.2835212e-02
  -1.2730064e-02
  -1.2599615e-02
  -1.2445212e-02
  -1.2268170e-02
  -1.2069767e-02
  -1.1851251e-02
  -1.1613833e-02
  -1.1358692e-02
